de/stl/saar/internetentw1/SmartMensaApplication.class
de/stl/saar/internetentw1/view/UserTableView.class
de/stl/saar/internetentw1/model/Category.class
de/stl/saar/internetentw1/utils/JsfUtils.class
de/stl/saar/internetentw1/model/User.class
de/stl/saar/internetentw1/RoomConverter.class
de/stl/saar/internetentw1/view/MainNavigationView.class
de/stl/saar/internetentw1/dao/classes/UserDaoImpl.class
de/stl/saar/internetentw1/view/AddUserView.class
de/stl/saar/internetentw1/spring/configuration/DaoConfiguration.class
de/stl/saar/internetentw1/dao/classes/RoleDaoImpl.class
de/stl/saar/internetentw1/utils/RandomUtils.class
de/stl/saar/internetentw1/i18n/impl/TranslatorImpl.class
de/stl/saar/internetentw1/view/DishTableView.class
de/stl/saar/internetentw1/utils/StringUtils.class
de/stl/saar/internetentw1/dao/interfaces/RoleDao.class
de/stl/saar/internetentw1/model/Language.class
de/stl/saar/internetentw1/view/LoginView.class
de/stl/saar/internetentw1/dao/interfaces/DishDao.class
de/stl/saar/internetentw1/model/Role.class
de/stl/saar/internetentw1/view/AddDishView.class
de/stl/saar/internetentw1/view/I18nBean.class
de/stl/saar/internetentw1/dao/interfaces/UserDao.class
de/stl/saar/internetentw1/dao/classes/DishDaoImpl.class
de/stl/saar/internetentw1/model/Room.class
de/stl/saar/internetentw1/i18n/I18nUtil.class
de/stl/saar/internetentw1/model/Dish.class
de/stl/saar/internetentw1/view/OrderView.class
de/stl/saar/internetentw1/i18n/Translator.class
